[
  {
    "REGISTRY": "docker.io",
    "OPENSUSE_IMAGE_REPO": "opensuse/leap",
    "OPENSUSE_IMAGE_TAG": "15.5",
    "MS_PACKAGES_URL": "https://packages.microsoft.com",
    "MS_OPENSUSE_REPO_VERSION": "15",
    "DOTNET_VERSION": "8.0",
    "POWERSHELL_VERSION": "7.4.0",
  }
]
